{
  "database": {
    "rules": "database.rules.json"
  },
  "hosting": {
    "headers": [ {
      "source" : "**/*.@(eot|otf|ttf|ttc|woff|css)",
      "headers" : [ {
        "key" : "Cache-Control",
        "value" : "max-age=3600"
      } ]
    }, {
      "source" : "**/*.@(jpg|jpeg|gif|png)",
      "headers" : [ {
        "key" : "Cache-Control",
        "value" : "max-age=3600"
      } ]
    }, {
      "source" : "**/*.js",
      "headers" : [ {
        "key" : "Cache-Control",
        "value" : "max-age=3600"
      } ]
    }],

    "public": "dist",
    "rewrites": [
      {
        "source": "**",
        "destination": "/index.html"
      }
    ]
  }
}
